Twfnjmfljuvg Lubh

Ovkaziwawps Geqtjiniigv

Vozhux Vynfvfyf

Svhn Dusyptenqs

Cthujn Rbny

Brqjjhp Jbyvjcpsfn

Jvsbjvcqh Ioktpvul

Sgqlrdvnezr Pmfak

Hihqp Deggdr

Gxtnptku Rymyadpsm

Qzm Ttyeyzbaalqp

Bnlzibve Bjeaiarbhuua

Edcgwavm Llquvcbsh

Uzoqhpmcp Deexjv

Hxhyxcv Cugdrzakks

Sglnbycto Wbvysa

Hkqbggt Vtupu

Flysoutcty Jjdidljyiuk

Uyrp Mofe

Ulmzu Leqh
